Id,Nom,Sexe,Maison,Maison_code
1,Aegon,m,targaryen,TARG
2,Aemon,m,targaryen,TARG
3,Aerys,m,targaryen,TARG
4,Alliser,m,thorne,THOR
5,Amory,m,lorch,LO
6,Anguy,m,brotherhood without banners,BWB
7,Arya,f,stark,STAR
8,Balon,m,greyjoy,GRYJ
9,Barristan,m,selmy,SELM
10,Belwas,m,NA,NA
11,Beric,m,brotherhood without banners,BWB
12,Bowen,m,night’s watch,NW
13,Bran,m,stark,STAR
14,Brienne,f,tarth,TART
15,Bronn,m,lannister,LANS
16,Brynden,m,tully,TULL
17,Catelyn,f,stark,STAR
18,Cersei,f,lannister,LANS
19,Chataya,f,NA,NA
20,Craster,f,free folks,FF
21,Cressen,m,baratheon,BARA
22,Daario,m,NA,NA
23,Daenerys,f,targaryen,TARG
24,Dalla,f,free folks,FF
25,Davos,m,seaworth,SWTH
26,Doran,m,martell,MART
27,Drogo,m,dothraki,DOTH
28,Eddard,m,stark,STAR
29,Eddison,m,night’s watch,NW
30,Edmure,m,tully,TULL
31,Elia,f,martell,MART
32,Ellaria,f,martell,MART
33,Gendry,m,NA,NA
34,Gilly,f,free folks,FF
35,Gregor,m,clegane,CLEG
36,Grenn,m,night’s watch,NW
37,Hodor,m,NA,NA
38,Hoster,m,tully,TULL
39,Illyrio,m,NA,NA
40,Ilyn,m,payne,PAYN
41,Irri,f,dothraki,DOTH
42,Jaime,m,lannister,LANS
43,Janos,m,night’s watch,NW
44,Jeyne,f,poole,POO
45,Joffrey,m,baratheon,BARA
46,Jojen,m,reed,REE
47,Jon,m,stark,STAR
48,Jon Arryn,m,arryn,ARR
49,Jorah,m,mormont,MORM
50,Karl,m,night’s watch,NW
51,Kevan,m,lannister,LANS
52,Kraznys,m,NA,NA
53,Lancel,m,lannister,LANS
54,Loras,m,tyrell,TYRL
55,Lothar,m,frey,FRY
56,Luwin,m,NA,NA
57,Lysa,f,arryn,ARR
58,Mace,m,tyrell,TYRL
59,Mance,m,free folks,FF
60,Margaery,f,tyrell,TYRL
61,Marillion,m,NA,NA
62,Meera,f,reed,REE
63,Melisandre,f,NA,NA
64,Meryn,m,trant,TRAN
65,Missandei,f,NA,NA
66,Myrcella,f,baratheon,BARA
67,Nan,f,NA,NA
68,Oberyn,m,martell,MART
69,Olenna,f,tyrell,TYRL
70,Orell,m,free folks,FF
71,Littlefinger,m,baelish,BAE
72,Podrick,m,payne,PAYN
73,Pycelle,m,lannister,LANS
74,Qhorin,m,night’s watch,NW
75,Qyburn,m,lannister,LANS
76,Rakharo,m,dothraki,DOTH
77,Ramsay,m,bolton,BOLT
78,Rattleshirt,m,free folks,FF
79,Renly,m,baratheon,BARA
80,Rhaegar,m,targaryen,TARG
81,Rickard,m,stark,STAR
82,Rickon,m,stark,STAR
83,Robb,m,stark,STAR
84,Robert,m,baratheon,BARA
85,Robert Arryn,m,arryn,ARR
86,Roose,m,bolton,BOLT
87,Roslin,f,tully,TULL
88,Salladhor,m,baratheon,BARA
89,Samwell,m,night’s watch,NW
90,Sandor,m,clegane,CLEG
91,Sansa,f,stark,STAR
92,Shae,f,NA,NA
93,Shireen,f,baratheon,BARA
94,Stannis,m,baratheon,BARA
95,Styr,m,free folks,FF
96,Theon,m,greyjoy,GRYJ
97,Thoros,m,brotherhood without banners,BWB
98,Tommen,m,baratheon,BARA
99,Tyrion,m,lannister,LANS
100,Tywin,m,lannister,LANS
101,Val,m,NA,NA
102,Varys,m,NA,NA
103,Viserys,m,targaryen,TARG
104,Walder,m,frey,FRY
105,Walton,m,bolton,BOLT
106,Worm,m,NA,NA
107,Ygritte,f,free folks,FF
